{
	"info": {
		"_postman_id": "b2d4ddba-34d2-4ef4-aca8-0622f0f25deb",
		"name": "OmniShop",
		"schema": "https://schema.getpostman.com/json/collection/v2.1.0/collection.json"
	},
	"item": [
		{
			"name": "Menus",
			"item": [
				{
					"name": "getMenu",
					"request": {
						"method": "GET",
						"header": [],
						"body": {
							"mode": "raw",
							"raw": ""
						},
						"url": {
							"raw": "http://localhost/FormaTIC/OmniShop/services/Menus/Menu?id=1&populate",
							"protocol": "http",
							"host": [
								"localhost"
							],
							"path": [
								"FormaTIC",
								"OmniShop",
								"services",
								"Menus",
								"Menu"
							],
							"query": [
								{
									"key": "id",
									"value": "1",
									"description": "Id del menú a consultar"
								},
								{
									"key": "populate",
									"value": null,
									"description": "Si es pasado se cargarán los menues hijos"
								}
							]
						},
						"description": "Obtener el menú especificado por el id entregado."
					},
					"response": [
						{
							"name": "getMenu",
							"originalRequest": {
								"method": "GET",
								"header": [],
								"body": {
									"mode": "raw",
									"raw": ""
								},
								"url": {
									"raw": "http://localhost/FormaTIC/OmniShop/services/Menus/Menu?id=1",
									"protocol": "http",
									"host": [
										"localhost"
									],
									"path": [
										"FormaTIC",
										"OmniShop",
										"services",
										"Menus",
										"Menu"
									],
									"query": [
										{
											"key": "id",
											"value": "1"
										}
									]
								}
							},
							"status": "OK",
							"code": 200,
							"_postman_previewlanguage": "json",
							"header": [
								{
									"key": "Date",
									"value": "Sat, 10 Nov 2018 15:24:47 GMT"
								},
								{
									"key": "Server",
									"value": "Apache/2.4.34 (Unix) OpenSSL/1.0.2p PHP/7.2.9 mod_perl/2.0.8-dev Perl/v5.16.3"
								},
								{
									"key": "X-Powered-By",
									"value": "PHP/7.2.9"
								},
								{
									"key": "Access-Control-Allow-Origin",
									"value": "*"
								},
								{
									"key": "Access-Control-Allow-Methods",
									"value": "GET,PUT,POST,DELETE"
								},
								{
									"key": "Access-Control-Allow-Headers",
									"value": "Origin, X-Requested-With, Content-Type, Accept"
								},
								{
									"key": "Content-Length",
									"value": "65"
								},
								{
									"key": "Keep-Alive",
									"value": "timeout=5, max=100"
								},
								{
									"key": "Connection",
									"value": "Keep-Alive"
								},
								{
									"key": "Content-Type",
									"value": "application/json;charset=utf-8"
								}
							],
							"cookie": [],
							"body": "{\n    \"id\": \"1\",\n    \"name\": \"MEN\",\n    \"url\": \"/men\",\n    \"parent\": \"\",\n    \"_table\": \"Menu\"\n}"
						},
						{
							"name": "getMenu (Populated)",
							"originalRequest": {
								"method": "GET",
								"header": [],
								"body": {
									"mode": "raw",
									"raw": ""
								},
								"url": {
									"raw": "http://localhost/FormaTIC/OmniShop/services/Menus/Menu?id=1&populate",
									"protocol": "http",
									"host": [
										"localhost"
									],
									"path": [
										"FormaTIC",
										"OmniShop",
										"services",
										"Menus",
										"Menu"
									],
									"query": [
										{
											"key": "id",
											"value": "1"
										},
										{
											"key": "populate",
											"value": null
										}
									]
								}
							},
							"status": "OK",
							"code": 200,
							"_postman_previewlanguage": "json",
							"header": [
								{
									"key": "Date",
									"value": "Sat, 10 Nov 2018 15:28:50 GMT"
								},
								{
									"key": "Server",
									"value": "Apache/2.4.34 (Unix) OpenSSL/1.0.2p PHP/7.2.9 mod_perl/2.0.8-dev Perl/v5.16.3"
								},
								{
									"key": "X-Powered-By",
									"value": "PHP/7.2.9"
								},
								{
									"key": "Access-Control-Allow-Origin",
									"value": "*"
								},
								{
									"key": "Access-Control-Allow-Methods",
									"value": "GET,PUT,POST,DELETE"
								},
								{
									"key": "Access-Control-Allow-Headers",
									"value": "Origin, X-Requested-With, Content-Type, Accept"
								},
								{
									"key": "Content-Length",
									"value": "234"
								},
								{
									"key": "Keep-Alive",
									"value": "timeout=5, max=100"
								},
								{
									"key": "Connection",
									"value": "Keep-Alive"
								},
								{
									"key": "Content-Type",
									"value": "application/json;charset=utf-8"
								}
							],
							"cookie": [],
							"body": "{\n    \"id\": \"1\",\n    \"name\": \"MEN\",\n    \"url\": \"/men\",\n    \"parent\": \"\",\n    \"_table\": \"Menu\",\n    \"hijo\": [\n        {\n            \"id\": \"4\",\n            \"name\": \"SHIRTS\",\n            \"url\": \"/men/shirts\",\n            \"parent\": \"1\",\n            \"_table\": \"Menu\"\n        },\n        {\n            \"id\": \"7\",\n            \"name\": \"FOOTWEAR\",\n            \"url\": \"/men/footwear\",\n            \"parent\": \"1\",\n            \"_table\": \"Menu\"\n        }\n    ]\n}"
						},
						{
							"name": "Error: No id provided",
							"originalRequest": {
								"method": "GET",
								"header": [],
								"body": {
									"mode": "raw",
									"raw": ""
								},
								"url": {
									"raw": "http://localhost/FormaTIC/OmniShop/services/Menus/Menu",
									"protocol": "http",
									"host": [
										"localhost"
									],
									"path": [
										"FormaTIC",
										"OmniShop",
										"services",
										"Menus",
										"Menu"
									]
								}
							},
							"status": "Bad Request",
							"code": 400,
							"_postman_previewlanguage": "json",
							"header": [
								{
									"key": "Date",
									"value": "Sat, 10 Nov 2018 15:33:10 GMT"
								},
								{
									"key": "Server",
									"value": "Apache/2.4.34 (Unix) OpenSSL/1.0.2p PHP/7.2.9 mod_perl/2.0.8-dev Perl/v5.16.3"
								},
								{
									"key": "X-Powered-By",
									"value": "PHP/7.2.9"
								},
								{
									"key": "Access-Control-Allow-Origin",
									"value": "*"
								},
								{
									"key": "Access-Control-Allow-Methods",
									"value": "GET,PUT,POST,DELETE"
								},
								{
									"key": "Access-Control-Allow-Headers",
									"value": "Origin, X-Requested-With, Content-Type, Accept"
								},
								{
									"key": "Content-Length",
									"value": "57"
								},
								{
									"key": "Connection",
									"value": "close"
								},
								{
									"key": "Content-Type",
									"value": "application/json;charset=utf-8"
								}
							],
							"cookie": [],
							"body": "{\n    \"msg\": \"El valor del id no ha sido provisto\",\n    \"error\": \"1\"\n}"
						}
					]
				}
			],
			"event": [
				{
					"listen": "prerequest",
					"script": {
						"id": "09fbd3fd-19ba-460f-be0f-26c2252e3726",
						"type": "text/javascript",
						"exec": [
							""
						]
					}
				},
				{
					"listen": "test",
					"script": {
						"id": "b73b676b-6f05-4f95-87c4-13d0cedecbe4",
						"type": "text/javascript",
						"exec": [
							""
						]
					}
				}
			]
		}
	]
}